attrs==21.4.0
beautifulsoup4==4.10.0
bleach==4.1.0
django-braces==1.15.0
django-dramatiq==0.10.0
django-extensions==3.1.5
django-filter==21.1
django-mptt==0.13.4
django-reversion==5.0.0
django-sendfile==0.3.11
django-taggit==2.1.0
Django==3.2.13
djangorestframework==3.13.1
dramatiq[redis, watch]==1.12.2
elasticsearch==6.8.1
google-api-python-client==2.38.0
google-auth==2.6.0
humanize==4.0.0
Pillow==8.2.0
psycopg2==2.9.3
python-dateutil==2.8.2
pytz==2021.3
pyxero==0.9.3
redis==3.3.8
reportlab==3.6.5
